[[0.00364267 0.00319169 0.00267615 0.00244617 0.00073654 0.00214126
  0.00308603 0.00284569 0.0011592  0.00371691 0.00530568 0.00390752
  0.00116749 0.00238505 0.00229562 0.00518827 0.00362816 0.00051002
  0.00174036 0.00321863]
 [0.00324867 0.00434123 0.00412955 0.00228284 0.00071686 0.00199312
  0.00433985 0.00352492 0.00124967 0.00412265 0.0052007  0.004373
  0.00112053 0.00246654 0.00260743 0.00596349 0.00357671 0.00067232
  0.00205701 0.00349211]
 [0.00314957 0.00327042 0.00416961 0.00213056 0.00067612 0.00174243
  0.00507605 0.00288057 0.00112156 0.00442445 0.00564615 0.00356394
  0.0011333  0.00247483 0.0027314  0.00497418 0.00306186 0.00063917
  0.00211088 0.00346   ]
 [0.00229527 0.00279079 0.0024738  0.00259949 0.00058495 0.0017887
  0.00278147 0.00218132 0.00104698 0.00291027 0.00427251 0.00372554
  0.00084325 0.00169512 0.00194582 0.00372589 0.00248588 0.00047584
  0.00159326 0.00223899]
 [0.0006585  0.00060049 0.00066265 0.0005228  0.00028177 0.00050104
  0.00062225 0.00083012 0.0003315  0.00093682 0.0013253  0.00075899
  0.00024897 0.0005632  0.00067715 0.00110741 0.00066403 0.00015159
  0.00047929 0.00075312]
 [0.00197862 0.0024144  0.0021278  0.00202075 0.00046858 0.00238367
  0.00281323 0.00174623 0.00090575 0.00248381 0.00411298 0.00277974
  0.00078316 0.00163884 0.00178318 0.00293789 0.00201212 0.00042231
  0.00148379 0.00200935]
 [0.00346276 0.0045087  0.00438197 0.00299797 0.00066541 0.00259534
  0.00531949 0.00273727 0.00123206 0.00437023 0.00637234 0.00547246
  0.00126003 0.00210328 0.00271344 0.00497625 0.00369515 0.00063468
  0.00225003 0.00343548]
 [0.00279079 0.00295343 0.00273105 0.00210155 0.00074276 0.00167751
  0.00288333 0.00294031 0.00113054 0.00347277 0.0046047  0.00374522
  0.00102177 0.00169685 0.00229285 0.00467687 0.00304425 0.00060602
  0.0018405  0.00300592]
 [0.00108013 0.00121687 0.00126798 0.00103386 0.00033668 0.0008315
  0.00129042 0.00117474 0.00068958 0.0014389  0.00220135 0.0013291
  0.0003643  0.00114574 0.00097412 0.00197828 0.00115955 0.00025898
  0.00081735 0.00116991]
 [0.00366684 0.00398418 0.00403425 0.00282843 0.00093855 0.00243374
  0.00412852 0.0031544  0.00146653 0.00415096 0.00637026 0.00468239
  0.00124553 0.00332429 0.00302594 0.00597316 0.00381152 0.00075346
  0.0021309  0.00371967]
 [0.00533019 0.00585057 0.00537992 0.00446899 0.00131666 0.00440373
  0.0060657  0.00451837 0.00215887 0.00584263 0.00871871 0.00753292
  0.00172655 0.00475318 0.00417721 0.00839205 0.00527598 0.00090402
  0.00311158 0.0050277 ]
 [0.00370655 0.00460643 0.00421346 0.00403079 0.00083599 0.00279252
  0.00543517 0.00301489 0.00148276 0.00489683 0.00712477 0.006257
  0.00129802 0.00301766 0.00332084 0.00571245 0.00405566 0.0007766
  0.00276593 0.00400939]
 [0.00136639 0.0013543  0.00132357 0.00088434 0.00024448 0.00076382
  0.00136639 0.00116404 0.00038398 0.00132115 0.00180251 0.00160051
  0.00046444 0.00079352 0.00086742 0.00191336 0.00133255 0.0001875
  0.00058737 0.00122585]
 [0.00225452 0.00254148 0.00220894 0.00180631 0.00038537 0.0020204
  0.0029265  0.00194202 0.00102833 0.00292511 0.00423142 0.00291855
  0.00082287 0.0022345  0.00192717 0.00435711 0.0028046  0.00044407
  0.00144892 0.00262228]
 [0.00238401 0.00262918 0.00269963 0.00170652 0.00056941 0.00200417
  0.00279631 0.00252007 0.00106044 0.00305426 0.00429737 0.00304701
  0.00080906 0.00190921 0.00206564 0.00361642 0.00256289 0.00051727
  0.00163849 0.00250798]
 [0.00489061 0.00587716 0.00472348 0.00397071 0.00098862 0.00358707
  0.00474317 0.00439993 0.00192717 0.00566687 0.00842002 0.00663132
  0.0017376  0.00396622 0.00379909 0.00927708 0.00633573 0.00080077
  0.00260329 0.00466478]
 [0.00354564 0.00374419 0.00311573 0.00240059 0.00067163 0.00196826
  0.00338058 0.0030843  0.00118268 0.00382534 0.00549042 0.00420863
  0.00100968 0.00307912 0.00262124 0.00582399 0.00403597 0.00063192
  0.00175244 0.00359812]
 [0.0005228  0.00067404 0.00066576 0.00050312 0.00023343 0.00038329
  0.00064573 0.00051209 0.00021858 0.00064504 0.00098724 0.00088468
  0.00019199 0.00030076 0.0005266  0.00089228 0.00051555 0.0001471
  0.00038502 0.00061948]
 [0.00172102 0.00197551 0.00217614 0.00144581 0.00054283 0.0013985
  0.00206944 0.00192337 0.00084359 0.00217925 0.00336711 0.00227835
  0.00067646 0.00143925 0.00168338 0.00270999 0.00185293 0.00040056
  0.00140023 0.00189437]
 [0.00339888 0.00310157 0.00338438 0.00237331 0.00077073 0.00198553
  0.00355081 0.00291165 0.00120444 0.00358396 0.005315   0.00390303
  0.00102281 0.00290578 0.00246447 0.00494655 0.00333085 0.00055664
  0.00185949 0.00324383]]