\relax 
\@writefile{toc}{\contentsline {section}{\numberline {1}Question 1}{1}\protected@file@percent }
\@writefile{toc}{\contentsline {subsection}{\numberline {1.1}Part 1}{1}\protected@file@percent }
\@writefile{toc}{\contentsline {subsection}{\numberline {1.2}Part 2}{1}\protected@file@percent }
\@writefile{toc}{\contentsline {section}{\numberline {2}Question 2}{2}\protected@file@percent }
\@writefile{toc}{\contentsline {subsection}{\numberline {2.1}Part 1}{2}\protected@file@percent }
\@writefile{toc}{\contentsline {subsection}{\numberline {2.2}Part 2}{2}\protected@file@percent }
\@writefile{toc}{\contentsline {subsection}{\numberline {2.3}Part 3}{2}\protected@file@percent }
\@writefile{toc}{\contentsline {subsection}{\numberline {2.4}Part 4}{2}\protected@file@percent }
\@writefile{toc}{\contentsline {subsection}{\numberline {2.5}Part 5}{2}\protected@file@percent }
\@writefile{toc}{\contentsline {subsection}{\numberline {2.6}Part 6}{2}\protected@file@percent }
\@writefile{toc}{\contentsline {subsection}{\numberline {2.7}Part 7}{2}\protected@file@percent }
