\relax 
\providecommand\hyper@newdestlabel[2]{}
\providecommand\HyperFirstAtBeginDocument{\AtBeginDocument}
\HyperFirstAtBeginDocument{\ifx\hyper@anchor\@undefined
\global\let\oldcontentsline\contentsline
\gdef\contentsline#1#2#3#4{\oldcontentsline{#1}{#2}{#3}}
\global\let\oldnewlabel\newlabel
\gdef\newlabel#1#2{\newlabelxx{#1}#2}
\gdef\newlabelxx#1#2#3#4#5#6{\oldnewlabel{#1}{{#2}{#3}}}
\AtEndDocument{\ifx\hyper@anchor\@undefined
\let\contentsline\oldcontentsline
\let\newlabel\oldnewlabel
\fi}
\fi}
\global\let\hyper@last\relax 
\gdef\HyperFirstAtBeginDocument#1{#1}
\providecommand\HyField@AuxAddToFields[1]{}
\providecommand\HyField@AuxAddToCoFields[2]{}
\@writefile{toc}{\contentsline {section}{\numberline {1}Part 1: Dimensionality Reduction}{1}{section.1}\protected@file@percent }
\@writefile{toc}{\contentsline {subsection}{\numberline {1.1}PCA}{1}{subsection.1.1}\protected@file@percent }
\@writefile{lof}{\contentsline {figure}{\numberline {1}{\ignorespaces (Left) PCA performed on all features (Right) PCA performed on the 500 features with greatest variance.}}{1}{figure.1}\protected@file@percent }
\@writefile{lof}{\contentsline {figure}{\numberline {2}{\ignorespaces Scree plot of the first 10 prinicipal components of the PCA performed on all features.}}{1}{figure.2}\protected@file@percent }
\@writefile{toc}{\contentsline {subsection}{\numberline {1.2}NMF}{2}{subsection.1.2}\protected@file@percent }
\@writefile{lof}{\contentsline {figure}{\numberline {3}{\ignorespaces The variance explained by each of the metagenes determined by NMF.}}{2}{figure.3}\protected@file@percent }
\@writefile{toc}{\contentsline {subsubsection}{\numberline {1.2.1}Why do we have to randomly hide data from the matrix rather than hold out entire cells or genes?}{2}{subsubsection.1.2.1}\protected@file@percent }
\@writefile{lof}{\contentsline {figure}{\numberline {4}{\ignorespaces The variance explained by each of the metagenes determined by NMF with 3 different seeds.}}{3}{figure.4}\protected@file@percent }
\@writefile{lof}{\contentsline {figure}{\numberline {5}{\ignorespaces Heatmap representation of the H matrix calculated by the NMF technique.}}{3}{figure.5}\protected@file@percent }
\@writefile{toc}{\contentsline {subsubsection}{\numberline {1.2.2}The variances for each random seed of NMF and the interpretation of the H matrix}{3}{subsubsection.1.2.2}\protected@file@percent }
\@writefile{toc}{\contentsline {subsection}{\numberline {1.3}tSNE}{4}{subsection.1.3}\protected@file@percent }
\@writefile{lof}{\contentsline {figure}{\numberline {6}{\ignorespaces The tSNE dimensionality reduction technique performed on the dataset.}}{4}{figure.6}\protected@file@percent }
\@writefile{lof}{\contentsline {figure}{\numberline {7}{\ignorespaces A comparison of different perplexity values.}}{4}{figure.7}\protected@file@percent }
\@writefile{lof}{\contentsline {figure}{\numberline {8}{\ignorespaces A comparison of different random initializations.}}{5}{figure.8}\protected@file@percent }
\@writefile{toc}{\contentsline {subsection}{\numberline {1.4}Comments on perplexity, random initialization and the best method}{5}{subsection.1.4}\protected@file@percent }
\@writefile{toc}{\contentsline {section}{\numberline {2}Part 2: Classification}{6}{section.2}\protected@file@percent }
\@writefile{toc}{\contentsline {subsection}{\numberline {2.1}Multinomial Regression and L1/L2 Regularization}{6}{subsection.2.1}\protected@file@percent }
\@writefile{lof}{\contentsline {figure}{\numberline {9}{\ignorespaces Training loss and accuracy curves for various regularization methods. }}{6}{figure.9}\protected@file@percent }
\@writefile{lof}{\contentsline {figure}{\numberline {10}{\ignorespaces Training curves for a small subset of the data (5000 points from the full training set and 5000 from the test set) shows that the model works and makes sense.}}{7}{figure.10}\protected@file@percent }
\@writefile{toc}{\contentsline {subsection}{\numberline {2.2}Support Vector Machines}{7}{subsection.2.2}\protected@file@percent }
\@writefile{toc}{\contentsline {subsection}{\numberline {2.3}Multinomial Regression with a Hidden Layer and ReLU Activation}{7}{subsection.2.3}\protected@file@percent }
\@writefile{lof}{\contentsline {figure}{\numberline {11}{\ignorespaces Training loss and accuracy curves for various regularization methods with ReLU activation.}}{8}{figure.11}\protected@file@percent }
\@writefile{toc}{\contentsline {subsection}{\numberline {2.4}Convolutional Neural Network}{8}{subsection.2.4}\protected@file@percent }
\@writefile{lof}{\contentsline {figure}{\numberline {12}{\ignorespaces Training curves for various learning rates for the multinomial regression with a hidden layer and ReLU activation.}}{9}{figure.12}\protected@file@percent }
\@writefile{lof}{\contentsline {figure}{\numberline {13}{\ignorespaces Training curves for a simple convolutional network trained on the MNIST data}}{9}{figure.13}\protected@file@percent }
