\relax 
\@writefile{toc}{\contentsline {section}{\numberline {1}Question 1}{1}\protected@file@percent }
\@writefile{toc}{\contentsline {subsection}{\numberline {1.1}Test Input 1}{1}\protected@file@percent }
\@writefile{toc}{\contentsline {subsection}{\numberline {1.2}Test Input 2}{2}\protected@file@percent }
\@writefile{toc}{\contentsline {subsection}{\numberline {1.3}Test Input 3}{3}\protected@file@percent }
\@writefile{toc}{\contentsline {subsection}{\numberline {1.4}Test Input 4}{4}\protected@file@percent }
\@writefile{toc}{\contentsline {subsection}{\numberline {1.5}Test Input 5}{5}\protected@file@percent }
\@writefile{toc}{\contentsline {subsection}{\numberline {1.6}Comments}{5}\protected@file@percent }
