\relax 
\@writefile{toc}{\contentsline {section}{\numberline {1}Part 2}{1}\protected@file@percent }
\@writefile{toc}{\contentsline {subsection}{\numberline {1.1}Question 1}{1}\protected@file@percent }
\@writefile{toc}{\contentsline {subsection}{\numberline {1.2}Question 2}{1}\protected@file@percent }
\@writefile{toc}{\contentsline {subsection}{\numberline {1.3}Question 3}{1}\protected@file@percent }
\@writefile{toc}{\contentsline {subsection}{\numberline {1.4}Question 4}{2}\protected@file@percent }
