chr,pos,nucleotide,count,coverage_at_position,VAF,p
chr21,36206785,C,56,88397,0.000633505661956854,0.19999252316309812
chr17,58740887,A,16,14477,0.00110520135387166,0.47261294208922755
chr20,31024287,A,1,12356,8.09323405632891e-05,0.3417308317483114
chr4,106155307,T,2,48453,4.127711390419579e-05,0.5928014850801147
chr4,106156524,A,1,5341,0.00018723085564501,0.050720891286776926
chr4,106164769,A,5,43857,0.00011400688601591499,0.07238944561977778
chr4,106180874,T,6,16535,0.00036286664650740896,0.562483071755451
chr4,106194031,A,2,9275,0.00021563342318059299,0.579576766827053
chr4,106196282,T,2,72379,2.7632324292957897e-05,0.565445851792835
chr4,106196835,T,3,49726,6.03306117524032e-05,0.3218345932856175
chr2,25463313,T,17,34484,0.000492982252638905,0.4004114385745634
chr2,25467023,A,132,216681,0.000609190468938209,0.25310541175577916
chr2,25469494,T,96,120788,0.000794780938503825,0.3281357770083193
chr2,198266513,C,3,14198,0.000211297365826173,0.33324646930541724
chr12,112888169,G,9,20047,0.00044894497929864804,0.515121523716006
chr12,112888210,C,1,10027,9.97307270370001e-05,0.5849332378886685
chr8,117864902,A,325,51764,0.006278494706746,0.021037437150056126
chr13,28592620,C,1,11512,8.68658790826963e-05,0.5306978637148284
chr11,119148990,C,3,34108,8.79559047730738e-05,0.34068596723045175
chr1,43814991,T,34,48536,0.000700510960936212,0.3863849509425096
chr1,115258745,A,32,16544,0.00193423597678917,0.2587949731265613
chr19,33792425,A,98,75685,0.00129484045715796,0.2566049421369291
chr19,33793112,A,12,112217,0.00010693566928362,0.01118693073586774
chr7,148506474,A,56,70420,0.000795228628230616,0.41888974062010054
chr7,148507447,C,6,7684,0.000780843310775638,0.24811253799251753
