chr,pos,nucleotide,count,coverage_at_position,VAF,p
chr4,106155307,T,1,11537,8.66776458351391e-05,0.3335286262247159
chr4,106164769,A,145,21320,0.00680112570356473,0.0
chr4,106180874,T,6,9998,0.000600120024004801,0.38612091904400314
chr4,106194031,A,51,9149,0.00557437971362991,7.518610491974442e-07
chr17,58740887,A,9,2407,0.00373909430826755,0.07921257446951724
chr21,36206785,C,11,26509,0.000414953412048738,0.34846251317948185
chr7,148506443,T,5,30757,0.000162564619436226,0.0001438625904808255
chr7,148506474,A,27,30757,0.00087784894495562,0.3826817544606055
chr7,148507447,C,1,3717,0.000269034167339252,0.6186291728041765
chr19,33792425,A,7,10010,0.000699300699300699,0.4796931147663964
chr2,25463313,T,5,9747,0.0005129783523135321,0.38581893854473526
chr2,25467023,A,30,47614,0.0006300667870794299,0.24146444843429637
chr2,25469494,T,29,31917,0.000908606698624557,0.2797334896339103
chr2,198266513,C,1,5566,0.000179662234998203,0.39284062717380186
chr8,117864902,A,30,17391,0.00172503018802829,0.34612949054634334
chr13,28592620,C,3,7217,0.00041568518775114303,0.04822733851911132
chr12,112888169,G,3,3533,0.0008491367110104731,0.28517050405921274
chr12,112888210,C,1,3533,0.00028304557033682404,0.2182854918451288
chr1,43814991,T,7,12316,0.0005683663527119191,0.46230100967350585
chr1,115258745,A,5,5839,0.000856311012159616,0.5496775989529938
