chr,pos,nucleotide,count,coverage_at_position,VAF,p
chr17,58740887,A,12,7396,0.00162249864791779,0.3327788095468872
chr2,25463313,T,10,13719,0.000728916101756688,0.2583878494126619
chr2,25467023,A,38,74771,0.0005082184269302269,0.3178359125035283
chr2,25469494,T,30,41378,0.00072502295906037,0.3618508489241564
chr4,106155307,T,2,26780,7.468259895444359e-05,0.3882623006048803
chr4,106180874,T,12,9773,0.00122787271052901,0.1426977891597223
chr4,106196835,T,1,14349,6.96912676841592e-05,0.269922439477307
chr7,148506443,T,1,10801,9.258401999814829e-05,0.006484392932180838
chr7,148506474,A,21,21597,0.0009723572718433119,0.34508532612792986
chr7,148507447,C,3,2727,0.0011001100110011,0.1403253631366761
chr12,112888169,G,3,9719,0.000308673731865418,0.6337565749290036
chr11,119148990,C,3,14904,0.00020128824476650601,0.08507197998520899
chr19,33792425,A,339,29840,0.0113605898123324,6.562155751232979e-06
chr19,33793112,A,2,31093,6.43231595535973e-05,0.0670308798957373
chr21,36206785,C,19,53911,0.000352432713175419,0.4084501353094172
chr8,117864902,A,33,18154,0.00181778120524402,0.32693731588238295
chr13,28592621,G,3,12705,0.00023612750885478197,0.020807253387673308
chr1,43814991,T,15,16666,0.000900036001440058,0.29470808450796504
chr1,115258745,A,12,6701,0.00179077749589613,0.28608543519236695
