chr,pos,nucleotide,count,coverage_at_position,VAF,p
chr2,25463313,T,17,21336,0.000796775403074616,0.22780165050744217
chr2,25467023,A,60,130043,0.00046138584929600194,0.3532443367803775
chr2,25469494,T,49,73599,0.000665769915352111,0.39319600343660743
chr2,198266513,C,1,6850,0.000145985401459854,0.4680352973876406
chr21,36206785,C,19,32776,0.000579692457896022,0.22929216669752506
chr19,33792425,A,56,67362,0.000831329236067813,0.4175698496692102
chr19,33793112,A,2,79899,2.50316023980275e-05,0.3493336464806722
chr7,148506474,A,50,43876,0.0011395751663779699,0.28738423743720865
chr7,148507447,C,4,5857,0.000682943486426498,0.29549209356640416
chr4,106156524,A,2,9117,0.000219370406932105,0.030403437958927748
chr4,106158108,A,1,6543,0.000152835090936879,0.1595362918996036
chr4,106164769,A,1,16476,6.0694343287205606e-05,0.24712708035703235
chr4,106180874,T,4,12150,0.000329218106995885,0.5933101095626625
chr4,106194031,A,2,13099,0.000152683410947401,0.6796199899671689
chr4,106196282,T,6,55806,0.000107515320933233,0.10878571327753095
chr4,106196835,T,1,17421,5.7401986108719395e-05,0.3400428769215065
chr20,31024287,A,2,13147,0.000152125960295124,0.1328865033849389
chr17,58740887,A,47,6989,0.006724853340964371,0.010458131008336702
chr13,28592620,C,3,11843,0.000253314194038673,0.15762051526183773
chr13,28592621,G,1,5921,0.000168890390136801,0.062676069726874
chr11,119148990,C,1,5638,0.00017736786094359698,0.11401629570843397
chr1,43814991,T,13,23183,0.0005607557261786651,0.4671018817251187
chr1,115258745,A,14,7430,0.0018842530282638,0.26799442075253244
chr8,117864902,A,33,23013,0.00143397210272455,0.4139817556715266
chr12,112888169,G,4,5600,0.000714285714285714,0.34804803145618357
chr12,112888210,C,1,5599,0.00017860332202178998,0.3827551425280469
