chr,pos,nucleotide,count,coverage_at_position,VAF,p
chr20,31024287,A,40,9335,0.00428494911622925,0.0
chr21,36206785,C,16,28982,0.0005520668000828099,0.24596330867252014
chr4,106158108,A,1,3899,0.000256476019492177,0.045951585873011624
chr4,106180874,T,5,9457,0.0005287088928835781,0.43241533216303596
chr4,106194031,A,2,4407,0.00045382346267302,0.31727938025859104
chr4,106196282,T,2,36699,5.4497397749257504e-05,0.32483084405480667
chr19,33792425,A,33,28963,0.00113938473224459,0.30212549287550927
chr2,25463313,T,3,6433,0.000466345406497746,0.42071100167400655
chr2,25467023,A,56,92122,0.0006078895377868481,0.2538491337280543
chr2,25469494,T,37,41246,0.0008970566842845369,0.28430030746829715
chr2,198266513,C,1,4394,0.000227583067819754,0.3061842225492948
chr17,58740887,A,13,5010,0.00259481037924152,0.172107098023211
chr7,148506474,A,24,28350,0.0008465608465608469,0.3960100074778361
chr7,148507447,C,5,7979,0.0006266449429753099,0.32673186516206054
chr13,28592620,C,1,5148,0.000194250194250194,0.2424941992266153
chr12,112888169,G,2,3661,0.000546298825457525,0.446105145660191
chr12,112888210,C,2,3660,0.0005464480874316941,0.05295667325553288
chr8,117864902,A,23,15505,0.0014833924540470801,0.40158812209883754
chr1,43814991,T,8,13824,0.000578703703703704,0.4558590191355707
chr1,115258745,A,11,6425,0.00171206225680934,0.30226368136543436
