chr,pos,nucleotide,count,coverage_at_position,VAF,p
chr21,36206785,C,18,29718,0.0006056935190793459,0.21463504238728348
chr19,33792425,A,42,31010,0.00135440180586907,0.24104149150124754
chr19,33793112,A,260,39717,0.006546315179897779,0.0
chr7,148506443,T,2,29753,6.72201122575875e-05,0.025782195957533727
chr7,148506474,A,142,29749,0.00477326968973747,0.0053913364232403005
chr7,148507447,C,5,3622,0.00138045278851463,0.08507452532125293
chr12,112888169,G,10,10821,0.000924129008409574,0.2552593506786651
chr4,106155307,T,2,33186,6.02663773880552e-05,0.46605556624301414
chr4,106180874,T,12,14371,0.000835014960684712,0.2660488351950592
chr4,106196282,T,2,21401,9.345357693565721e-05,0.14540420739263382
chr13,28592621,G,4,13050,0.000306513409961686,0.006559957014571238
chr17,58740887,A,21,8278,0.00253684464846581,0.17900713836223192
chr2,25463313,T,8,13182,0.000606888180852678,0.3240885432306053
chr2,25467023,A,48,72871,0.000658698247588204,0.2263647747330535
chr2,25469494,T,32,44057,0.00072633179744422,0.3611874378395179
chr2,198266513,C,2,6168,0.000324254215304799,0.1852005073381473
chr8,117864902,A,41,19290,0.00212545360290306,0.27057281182463333
chr1,43814991,T,9,16573,0.000543051951970072,0.4784633912962889
chr1,115258745,A,17,9162,0.0018554900676708101,0.2734357933155831
chr11,119148990,C,2,13946,0.000143410296859315,0.17278784919638124
