\relax 
\@writefile{toc}{\contentsline {section}{\numberline {1}Question 1}{1}\protected@file@percent }
\@writefile{toc}{\contentsline {section}{\numberline {2}Question 2}{1}\protected@file@percent }
\@writefile{toc}{\contentsline {section}{\numberline {3}Question 3}{1}\protected@file@percent }
\@writefile{toc}{\contentsline {section}{\numberline {4}Question 4}{1}\protected@file@percent }
\@writefile{toc}{\contentsline {section}{\numberline {5}Question 5}{2}\protected@file@percent }
\@writefile{toc}{\contentsline {section}{\numberline {6}Question 6}{2}\protected@file@percent }
\@writefile{toc}{\contentsline {section}{\numberline {7}Question 7}{2}\protected@file@percent }
